add_sub.vcd
$date
	Wed Dec 25 10:00:14 2024
$end
$version
	Icarus Verilog
$end
$timescale
	1ps
$end
$scope module add_sub_tb $end
$var wire 32 ! out_z [31:0] $end
$var wire 5 " exceptions [4:0] $end
$var reg 32 # in_x [31:0] $end
$var reg 32 $ in_y [31:0] $end
$var reg 1 % operation $end
$var reg 3 & round_mode [2:0] $end
$scope module uut $end
$var wire 1 ' cout_check $end
$var wire 1 ( divide_by_zero $end
$var wire 32 ) in_x [31:0] $end
$var wire 32 * in_y [31:0] $end
$var wire 1 + inexact $end
$var wire 1 , invalid_operation $end
$var wire 32 - of_result [31:0] $end
$var wire 1 % operation $end
$var wire 1 . operator_y $end
$var wire 1 / overflow $end
$var wire 3 0 round_mode [2:0] $end
$var wire 1 1 subtract $end
$var wire 1 2 underflow $end
$var wire 1 3 x_is_inf $end
$var wire 1 4 x_is_zero $end
$var wire 1 5 y_is_inf $end
$var wire 1 6 y_is_zero $end
$var wire 1 7 y_is_sNaN $end
$var wire 1 8 y_is_qNaN $end
$var wire 10 9 y_check_res [9:0] $end
$var wire 1 : x_is_sNaN $end
$var wire 1 ; x_is_qNaN $end
$var wire 10 < x_check_res [9:0] $end
$var wire 8 = subnorm_exp [7:0] $end
$var wire 1 > sign_z $end
$var wire 1 ? sign_y $end
$var wire 1 @ sign_x $end
$var wire 8 A shft_amt [7:0] $end
$var wire 27 B rt_shift_mant [26:0] $end
$var wire 24 C rounded_mant [23:0] $end
$var wire 1 D round_of $end
$var wire 32 E out_z [31:0] $end
$var wire 27 F norm_sum [26:0] $end
$var wire 8 G norm_exp [7:0] $end
$var wire 23 H mant_z [22:0] $end
$var wire 23 I mant_y [22:0] $end
$var wire 23 J mant_x [22:0] $end
$var wire 27 K mant_sum [26:0] $end
$var wire 23 L mant_b [22:0] $end
$var wire 23 M mant_a [22:0] $end
$var wire 27 N lt_shft_mant [26:0] $end
$var wire 5 O ld_zero_cnt [4:0] $end
$var wire 8 P inter_shft_amt [7:0] $end
$var wire 32 Q inter_result [31:0] $end
$var wire 5 R inc_dec_exp_amt [4:0] $end
$var wire 1 S hd_bit_b $end
$var wire 1 T hd_bit_a $end
$var wire 8 U exp_z [7:0] $end
$var wire 8 V exp_y [7:0] $end
$var wire 8 W exp_x [7:0] $end
$var wire 1 X exp_shft_comp $end
$var wire 8 Y exp_diff [7:0] $end
$var wire 8 Z exp_b [7:0] $end
$var wire 8 [ exp_a [7:0] $end
$var wire 5 \ exceptions [4:0] $end
$var wire 1 ] cout $end
$var wire 1 ^ comp $end
$var wire 1 _ b_is_subnorm $end
$var wire 27 ` arg2 [26:0] $end
$var wire 27 a arg1 [26:0] $end
$var wire 1 b a_is_subnorm $end
$scope module add_sub_rounder $end
$var wire 27 c mantisa [26:0] $end
$var wire 3 d round_mode [2:0] $end
$var wire 24 e rounded_mantisa [23:0] $end
$var wire 1 D rounding_overflow $end
$var wire 1 > sign $end
$var wire 1 f rup_overflow $end
$var wire 24 g rup [23:0] $end
$var wire 1 h rtz_overflow $end
$var wire 24 i rtz [23:0] $end
$var wire 1 j rne_overflow $end
$var wire 24 k rne [23:0] $end
$var wire 1 l rmm_overflow $end
$var wire 24 m rmm [23:0] $end
$var wire 1 n rdn_overflow $end
$var wire 24 o rdn [23:0] $end
$upscope $end
$scope module check_x $end
$var wire 32 p in [31:0] $end
$var wire 1 q is_neg_inf $end
$var wire 1 r is_neg_subnorm $end
$var wire 1 s is_neg_zero $end
$var wire 1 t is_pos_inf $end
$var wire 1 u is_pos_subnorm $end
$var wire 1 v is_pos_zero $end
$var wire 1 w is_qNaN $end
$var wire 1 x is_sNaN $end
$var wire 1 y sign $end
$var wire 1 z sig_zero $end
$var wire 23 { sig [22:0] $end
$var wire 10 | result [9:0] $end
$var wire 1 } is_pos_norm $end
$var wire 1 ~ is_neg_norm $end
$var wire 1 !" exp_zero $end
$var wire 1 "" exp_one $end
$var wire 8 #" exp [7:0] $end
$upscope $end
$scope module check_y $end
$var wire 32 $" in [31:0] $end
$var wire 1 %" is_neg_inf $end
$var wire 1 &" is_neg_subnorm $end
$var wire 1 '" is_neg_zero $end
$var wire 1 (" is_pos_inf $end
$var wire 1 )" is_pos_subnorm $end
$var wire 1 *" is_pos_zero $end
$var wire 1 +" is_qNaN $end
$var wire 1 ," is_sNaN $end
$var wire 1 -" sign $end
$var wire 1 ." sig_zero $end
$var wire 23 /" sig [22:0] $end
$var wire 10 0" result [9:0] $end
$var wire 1 1" is_pos_norm $end
$var wire 1 2" is_neg_norm $end
$var wire 1 3" exp_zero $end
$var wire 1 4" exp_one $end
$var wire 8 5" exp [7:0] $end
$upscope $end
$scope module exp_equalizer $end
$var wire 27 6" mantisa [26:0] $end
$var wire 27 7" out [26:0] $end
$var wire 8 8" shift_amount [7:0] $end
$upscope $end
$scope module norm_dist_checker $end
$var wire 24 9" in [23:0] $end
$var wire 5 :" out [4:0] $end
$upscope $end
$scope module norm_shifter $end
$var wire 27 ;" mantisa [26:0] $end
$var wire 8 <" shift_amount [7:0] $end
$var wire 27 =" temp [26:0] $end
$var wire 27 >" out [26:0] $end
$upscope $end
$upscope $end
$upscope $end
$enddefinitions $end
#0
$dumpvars
b0 >"
b0 ="
b0 <"
b0 ;"
b0 :"
b0 9"
b0 8"
b100000000000000000000000000 7"
b100000000000000000000000000 6"
b1111111 5"
04"
03"
02"
11"
b1000000 0"
b0 /"
1."
0-"
0,"
0+"
0*"
0)"
0("
0'"
0&"
0%"
b111111100000000000000000000000 $"
b1111111 #"
0""
0!"
0~
1}
b1000000 |
b0 {
1z
0y
0x
0w
0v
0u
0t
0s
0r
0q
b111111100000000000000000000000 p
b100000000000000000000000 o
0n
b100000000000000000000000 m
0l
b100000000000000000000000 k
0j
b100000000000000000000000 i
0h
b100000000000000000000000 g
0f
b100000000000000000000000 e
b0 d
b100000000000000000000000000 c
0b
b100000000000000000000000000 a
b100000000000000000000000000 `
0_
0^
1]
b0 \
b1111111 [
b1111111 Z
b0 Y
0X
b1111111 W
b1111111 V
b10000000 U
1T
1S
b1 R
b1000000000000000000000000000000 Q
b0 P
b0 O
b0 N
b0 M
b0 L
b0 K
b0 J
b0 I
b0 H
b10000000 G
b100000000000000000000000000 F
b1000000000000000000000000000000 E
0D
b100000000000000000000000 C
b100000000000000000000000000 B
b0 A
0@
0?
0>
b10000000 =
b1000000 <
0;
0:
b1000000 9
08
07
06
05
04
03
02
01
b0 0
0/
0.
b1111111100000000000000000000000 -
0,
0+
b111111100000000000000000000000 *
b111111100000000000000000000000 )
0(
1'
b0 &
0%
b111111100000000000000000000000 $
b111111100000000000000000000000 #
b0 "
b1000000000000000000000000000000 !
$end
#10000
b1 A
b1 <"
b1 P
b1 O
b1 :"
b0 H
b10000000000000000000000 9"
b100000000000000000000000000 N
b100000000000000000000000000 >"
b100000000000000000000000000 ="
b10000000000000000000000000 K
b10000000000000000000000000 ;"
b110000000000000000000000000 `
b10000000000000000000000000 B
b10000000000000000000000000 7"
b111111100000000000000000000000 !
b111111100000000000000000000000 E
b100000000000000000000000 C
b100000000000000000000000 e
b111111100000000000000000000000 Q
b1111111 U
b100000000000000000000000 k
b100000000000000000000000 o
b100000000000000000000000 g
b100000000000000000000000 m
b100000000000000000000000 i
b1 R
b100000000000000000000000000 F
b100000000000000000000000000 c
b1111111 =
0'
b1 Y
b1 8"
b1111111 G
b10000000 [
11
1.
b10000000 W
b10000000 #"
1%
b1000000000000000000000000000000 #
b1000000000000000000000000000000 )
b1000000000000000000000000000000 p
#20000
b0 N
b0 >"
1'
b0 A
b0 <"
b0 ="
b0 P
b0 O
b0 :"
b100000000000000000000000000 B
b100000000000000000000000000 7"
b11000000000000000000000000000000 !
b11000000000000000000000000000000 E
b11111111100000000000000000000000 -
b10000000 U
b11000000000000000000000000000000 Q
1>
b0 9"
b10000000 =
b0 K
b0 ;"
1]
b0 Y
b0 8"
b10000000 G
0}
b100000000000000000000000000 `
b1111111 [
b10 <
b10 |
1~
01
1@
b1111111 W
1y
b1111111 #"
b10111111100000000000000000000000 #
b10111111100000000000000000000000 )
b10111111100000000000000000000000 p
#30000
b100000000000000000000000 C
b100000000000000000000000 e
b100000000000000000000000 k
b100000000000000000000000 o
b100000000000000000000000 g
b100000000000000000000000 m
b0 R
b100000000000000000000000 i
b1111111 =
b1111111 G
b100000000000000000000000 9"
b100000000000000000000000000 N
b100000000000000000000000000 >"
b100000000000000000000000000 F
b100000000000000000000000000 c
0'
b100000000000000000000000000 ="
b100000000000000000000000000 K
b100000000000000000000000000 ;"
0]
b0 `
b0 B
b0 7"
01"
b1111111 U
b111111100000000000000000000000 !
b111111100000000000000000000000 E
b1111111100000000000000000000000 -
b111111100000000000000000000000 Q
16
b1111110 Y
b1111110 8"
b10000 9
b10000 0"
1*"
0>
1}
b0 6"
0S
1_
b0 Z
b1000000 <
b1000000 |
0~
13"
0.
b0 V
b0 5"
0@
0y
0%
b0 $
b0 *
b0 $"
b111111100000000000000000000000 #
b111111100000000000000000000000 )
b111111100000000000000000000000 p
#40000
11
1.
1%
#50000
b0 C
b0 e
b1111111 =
b1111111 G
b0 k
b0 o
b0 m
b0 R
b0 A
b0 <"
b0 P
b0 O
b0 :"
b0 "
b0 \
0+
b0 !
b0 E
b0 g
b0 i
11"
b0 Q
b0 F
b0 c
b0 9"
b0 N
b0 >"
b0 U
b0 ="
b0 K
b0 ;"
1]
b100000000000000000000000000 `
06
b100000000000000000000000000 B
b100000000000000000000000000 7"
b0 Y
b0 8"
b1000000 9
b1000000 0"
0*"
b100000000000000000000000000 6"
1S
0_
b1111111 Z
03"
b1111111 V
b1111111 5"
b111111100000000000000000000000 $
b111111100000000000000000000000 *
b111111100000000000000000000000 $"
#60000
b0 H
b1 "
b1 \
1+
b100000000000000000000000 C
b100000000000000000000000 e
b111111100000000000000000000000 !
b111111100000000000000000000000 E
0}
b111111100000000000000000000000 Q
b0 R
b100000000000000000000000 k
b100000000000000000000000 o
b100000000000000000000001 g
b100000000000000000000000 m
b100000000000000000000000 i
b1 `
b1111111 U
0'
b100000000000000000000000001 F
b100000000000000000000000001 c
b1 B
b1 7"
b100000000000000000000000 9"
b100000000000000000000000001 N
b100000000000000000000000001 >"
b1111111 =
b10000000000000000000000 L
b10000000000000000000000000 6"
0S
1_
b0 Z
b100000000000000000000000001 ="
b100000000000000000000000001 K
b100000000000000000000000001 ;"
0]
b1111110 Y
b1111110 8"
b1111111 G
b100000 <
b100000 |
1u
b0 M
b100000000000000000000000000 a
1T
0b
0X
b1111111 [
01
1^
1!"
0z
0.
b0 W
b10000000000000000000000 J
b0 #"
b10000000000000000000000 {
0%
b10000000000000000000000 #
b10000000000000000000000 )
b10000000000000000000000 p
#70000
b1111111100000000000000000000000 !
b1111111100000000000000000000000 E
b11111111 U
b1111111100000000000000000000000 Q
b0 "
b0 \
0+
b11111111 =
13
b11111111 G
04
b11111111 [
b10000000 Y
b10000000 8"
1t
b0 L
b100000000000000000000000000 6"
1S
0_
b1111111 Z
0u
b10000000 <
b10000000 |
0v
0^
0!"
1""
1z
b11111111 W
b0 J
b11111111 #"
b0 {
b1111111100000000000000000000000 #
b1111111100000000000000000000000 )
b1111111100000000000000000000000 p
#80000
b10000000000000000000000 H
b110000000000000000000000 C
b110000000000000000000000 e
b110000000000000000000000 o
b110000000000000000000001 g
b110000000000000000000000 k
b110000000000000000000000 m
b1111111110000000000000000000000 !
b1111111110000000000000000000000 E
b110000000000000000000000 i
b1111111110000000000000000000000 Q
b110000000000000000000000001 F
b110000000000000000000000001 c
b110000000000000000000000 9"
b110000000000000000000000001 N
b110000000000000000000000001 >"
1;
03
b110000000000000000000000001 ="
b110000000000000000000000001 K
b110000000000000000000000001 ;"
1w
b110000000000000000000000000 a
b10000000000000000000000 M
b1000000000 <
b1000000000 |
0t
0z
b10000000000000000000000 J
b10000000000000000000000 {
b1111111110000000000000000000000 #
b1111111110000000000000000000000 )
b1111111110000000000000000000000 p
#90000
b11111111111111111111111 H
b111111111111111111111111 C
b111111111111111111111111 e
1+
b111111111111111111111111 o
b0 g
1f
b1 "
b1 \
0/
b111111111111111111111111 k
b111111111111111111111111 m
b11111110 U
b1111111011111111111111111111111 !
b1111111011111111111111111111111 E
b111111111111111111111111 i
1}
b1111111011111111111111111111111 Q
b111111111111111111111111001 F
b111111111111111111111111001 c
b111111111111111111111111 9"
b111111111111111111111111001 N
b111111111111111111111111001 >"
b11111110 =
0;
b111111111111111111111111001 ="
b111111111111111111111111001 K
b111111111111111111111111001 ;"
b11111110 G
b1000000 <
b1000000 |
0w
b111111111111111111111111000 6"
b11111111111111111111111 L
b1111110 Z
b111111111111111111111111000 a
b11111111111111111111111 M
b11111110 [
0."
0""
b1111110 V
b11111111111111111111111 I
b1111110 5"
b11111111111111111111111 /"
b11111110 W
b11111111111111111111111 J
b11111110 #"
b11111111111111111111111 {
b111111011111111111111111111111 $
b111111011111111111111111111111 *
b111111011111111111111111111111 $"
b1111111011111111111111111111111 #
b1111111011111111111111111111111 )
b1111111011111111111111111111111 p
