verilog/tb/NN_tb_debugging_sigmoid_h1.vcd
$date
	Mon Dec 30 15:22:33 2024
$end
$version
	GTKWave Analyzer v3.3.104 (w)1999-2020 BSI
$end
$timescale
	1 s
$end
$scope module NN_tb $end
$scope module uut $end
$var wire 32 + final_res[31:0] $end
$var wire 32 1 h1_out[31:0] $end
$var wire 32 / h1_pre_sigmoid[31:0] $end
$var wire 32 2 h2_out[31:0] $end
$var wire 32 0 h2_pre_sigmoid[31:0] $end
$var wire 32 - intermediate_add1[31:0] $end
$var wire 32 . intermediate_add2[31:0] $end
$var wire 1 3 out_valid_sig1 $end
$var wire 1 4 out_valid_sig2 $end
$var wire 32 # wdata[31:0] $end
$var wire 32 " wbs_adr_i[31:0] $end
$var wire 1 $ valid $end
$var wire 1 , input_changed $end
$var wire 1 % clk $end
$scope module u_NN_registers $end
$var wire 32 ) NN_result[31:0] $end
$var wire 1 ( ready $end
$var wire 32 * result[31:0] $end
$var wire 32 ' opB[31:0] $end
$var wire 32 & opA[31:0] $end
$upscope $end
$upscope $end
$upscope $end
$enddefinitions $end
#0
$dumpvars
b111111000000000000000000000000 )
b0 #
04
b111111000000000000000000000000 2
b0 +
b111111000000000000000000000000 1
b0 *
03
0(
b0 0
b0 '
b0 &
0%
b0 -
b0 "
b0 /
b0 .
0$
0,
$end
#5
1%
#10
0%
#15
1%
b1000000110000000000000000000000 0
b10000000000000000000000000000000 .
b11000000000000000000000000000000 /
#20
0%
b111111100000000000000000000000 #
1$
b110000000000000000000000000000 "
#25
1%
b1000000000000000000000000000000 /
b11000000100000000000000000000000 .
b111111100000000000000000000000 &
b1000000100000000000000000000000 -
b1000000000000000000000000000000 0
1,
#30
0%
0$
#35
0,
1%
#40
0%
1$
b110000000000000000000000000100 "
b0 #
#45
1%
#50
0%
0$
